module tuf-client

go 1.22.0

require (
	github.com/Masterminds/semver/v3 v3.3.0
	github.com/theupdateframework/go-tuf/v2 v2.0.2
)

require (
	github.com/google/go-containerregistry v0.19.1 // indirect
	github.com/kr/text v0.2.0 // indirect
	github.com/letsencrypt/boulder v0.0.0-20230907030200-6d76a0f91e1e // indirect
	github.com/opencontainers/go-digest v1.0.0 // indirect
	github.com/secure-systems-lab/go-securesystemslib v0.8.0 // indirect
	github.com/sigstore/sigstore v1.8.4 // indirect
	github.com/titanous/rocacheck v0.0.0-20171023193734-afe73141d399 // indirect
	golang.org/x/crypto v0.23.0 // indirect
	golang.org/x/sys v0.20.0 // indirect
	golang.org/x/term v0.20.0 // indirect
	gopkg.in/go-jose/go-jose.v2 v2.6.3 // indirect
	gopkg.in/yaml.v3 v3.0.1 // indirect
)
